digraph "dao.DaoRevisoes.lerDb"
{
  edge [fontname="Helvetica",fontsize="10",labelfontname="Helvetica",labelfontsize="10"];
  node [fontname="Helvetica",fontsize="10",shape=record];
  rankdir="LR";
  Node1 [label="dao.DaoRevisoes.lerDb",height=0.2,width=0.4,color="black", fillcolor="grey75", style="filled", fontcolor="black"];
  Node1 -> Node2 [color="midnightblue",fontsize="10",style="solid"];
  Node2 [label="driver.ConnDb.ligacaoDb",height=0.2,width=0.4,color="black", fillcolor="white", style="filled",URL="$classdriver_1_1_conn_db.html#af8a2d4bb54d48391d0b578f602e86f60"];
  Node1 -> Node3 [color="midnightblue",fontsize="10",style="solid"];
  Node3 [label="model.MRevisao.setRevisaoId",height=0.2,width=0.4,color="black", fillcolor="white", style="filled",URL="$classmodel_1_1_m_revisao.html#af3d5eec18cc07d90a3e2e5dc84a05480"];
  Node1 -> Node4 [color="midnightblue",fontsize="10",style="solid"];
  Node4 [label="model.MRevisao.setAutomovelId",height=0.2,width=0.4,color="black", fillcolor="white", style="filled",URL="$classmodel_1_1_m_revisao.html#a221c52d5cd3ba799379941d8cf4012f1"];
  Node1 -> Node5 [color="midnightblue",fontsize="10",style="solid"];
  Node5 [label="model.MRevisao.setKmsautomovel",height=0.2,width=0.4,color="black", fillcolor="white", style="filled",URL="$classmodel_1_1_m_revisao.html#aa91533a5e73075aceb226d90104895d7"];
  Node1 -> Node6 [color="midnightblue",fontsize="10",style="solid"];
  Node6 [label="model.MRevisao.setData",height=0.2,width=0.4,color="black", fillcolor="white", style="filled",URL="$classmodel_1_1_m_revisao.html#abc2be053990209bf37188d6a49141194"];
  Node1 -> Node7 [color="midnightblue",fontsize="10",style="solid"];
  Node7 [label="model.MRevisao.setObeservacoes",height=0.2,width=0.4,color="black", fillcolor="white", style="filled",URL="$classmodel_1_1_m_revisao.html#a778d57c21c384feac62a6d650b0e6805"];
  Node1 -> Node8 [color="midnightblue",fontsize="10",style="solid"];
  Node8 [label="model.MRevisao.setOficina",height=0.2,width=0.4,color="black", fillcolor="white", style="filled",URL="$classmodel_1_1_m_revisao.html#a0a2364fe31bdfe1086e699429da07c62"];
  Node1 -> Node9 [color="midnightblue",fontsize="10",style="solid"];
  Node9 [label="driver.ConnDb.desligaDb",height=0.2,width=0.4,color="black", fillcolor="white", style="filled",URL="$classdriver_1_1_conn_db.html#a1b106248ed8f299763e27b1e6fb730f7"];
}
