digraph "gui.VRevisoes.VRevisoes"
{
  edge [fontname="Helvetica",fontsize="10",labelfontname="Helvetica",labelfontsize="10"];
  node [fontname="Helvetica",fontsize="10",shape=record];
  rankdir="LR";
  Node1 [label="gui.VRevisoes.VRevisoes",height=0.2,width=0.4,color="black", fillcolor="grey75", style="filled", fontcolor="black"];
  Node1 -> Node2 [color="midnightblue",fontsize="10",style="solid"];
  Node2 [label="model.MRevisao.setAutomovelId",height=0.2,width=0.4,color="black", fillcolor="white", style="filled",URL="$classmodel_1_1_m_revisao.html#a221c52d5cd3ba799379941d8cf4012f1"];
  Node1 -> Node3 [color="midnightblue",fontsize="10",style="solid"];
  Node3 [label="dao.DaoRevisoes.apagarDb",height=0.2,width=0.4,color="black", fillcolor="white", style="filled",URL="$classdao_1_1_dao_revisoes.html#a1472b4d39ac78fa2c22a917134cde58f"];
  Node3 -> Node4 [color="midnightblue",fontsize="10",style="solid"];
  Node4 [label="driver.ConnDb.ligacaoDb",height=0.2,width=0.4,color="black", fillcolor="white", style="filled",URL="$classdriver_1_1_conn_db.html#af8a2d4bb54d48391d0b578f602e86f60"];
  Node3 -> Node5 [color="midnightblue",fontsize="10",style="solid"];
  Node5 [label="model.MRevisao.getAutomovelId",height=0.2,width=0.4,color="black", fillcolor="white", style="filled",URL="$classmodel_1_1_m_revisao.html#a8c7ef0aa045fa202139f76252e66b52e"];
  Node3 -> Node6 [color="midnightblue",fontsize="10",style="solid"];
  Node6 [label="driver.ConnDb.desligaDb",height=0.2,width=0.4,color="black", fillcolor="white", style="filled",URL="$classdriver_1_1_conn_db.html#a1b106248ed8f299763e27b1e6fb730f7"];
  Node1 -> Node7 [color="midnightblue",fontsize="10",style="solid"];
  Node7 [label="gui.VRevisoes.preencheTabela",height=0.2,width=0.4,color="black", fillcolor="white", style="filled",URL="$classgui_1_1_v_revisoes.html#a7a71ffae4dff5841cabc823932902632"];
  Node7 -> Node4 [color="midnightblue",fontsize="10",style="solid"];
  Node7 -> Node6 [color="midnightblue",fontsize="10",style="solid"];
  Node1 -> Node8 [color="midnightblue",fontsize="10",style="solid"];
  Node8 [label="model.MAutomovel.setPesquisa",height=0.2,width=0.4,color="black", fillcolor="white", style="filled",URL="$classmodel_1_1_m_automovel.html#a4321a02f0df65d6de15bb0b58ff6387a"];
  Node1 -> Node9 [color="midnightblue",fontsize="10",style="solid"];
  Node9 [label="dao.DaoAutomovel.procura\lAutomovel",height=0.2,width=0.4,color="black", fillcolor="white", style="filled",URL="$classdao_1_1_dao_automovel.html#a90a40897922cb8202c7d229e41e239e4"];
  Node9 -> Node4 [color="midnightblue",fontsize="10",style="solid"];
  Node9 -> Node10 [color="midnightblue",fontsize="10",style="solid"];
  Node10 [label="model.MAutomovel.getPesquisa",height=0.2,width=0.4,color="black", fillcolor="white", style="filled",URL="$classmodel_1_1_m_automovel.html#ae2fabd760d32b3982c7a1837a942db70"];
  Node9 -> Node11 [color="midnightblue",fontsize="10",style="solid"];
  Node11 [label="model.MAutomovel.setAutomovelId",height=0.2,width=0.4,color="black", fillcolor="white", style="filled",URL="$classmodel_1_1_m_automovel.html#acd6a4076c6494c01a719f4cb6d090846"];
  Node9 -> Node12 [color="midnightblue",fontsize="10",style="solid"];
  Node12 [label="model.MAutomovel.setMarca",height=0.2,width=0.4,color="black", fillcolor="white", style="filled",URL="$classmodel_1_1_m_automovel.html#a961b4c00727f1dada646715316135d49"];
  Node9 -> Node13 [color="midnightblue",fontsize="10",style="solid"];
  Node13 [label="model.MAutomovel.setModelo",height=0.2,width=0.4,color="black", fillcolor="white", style="filled",URL="$classmodel_1_1_m_automovel.html#afb6d82a14b8aaa75b2ef6879208f4aac"];
  Node9 -> Node14 [color="midnightblue",fontsize="10",style="solid"];
  Node14 [label="model.MAutomovel.setCor",height=0.2,width=0.4,color="black", fillcolor="white", style="filled",URL="$classmodel_1_1_m_automovel.html#a6c925592a387f5e2f016e546c3c6a275"];
  Node9 -> Node15 [color="midnightblue",fontsize="10",style="solid"];
  Node15 [label="model.MAutomovel.setCilindrada",height=0.2,width=0.4,color="black", fillcolor="white", style="filled",URL="$classmodel_1_1_m_automovel.html#a8e0ff3ce50c8b292761f41974fb0754a"];
  Node9 -> Node16 [color="midnightblue",fontsize="10",style="solid"];
  Node16 [label="model.MAutomovel.setMatricula",height=0.2,width=0.4,color="black", fillcolor="white", style="filled",URL="$classmodel_1_1_m_automovel.html#a9ddd3b13851bc912a269c271c2950b45"];
  Node9 -> Node17 [color="midnightblue",fontsize="10",style="solid"];
  Node17 [label="model.MAutomovel.setCombustivel",height=0.2,width=0.4,color="black", fillcolor="white", style="filled",URL="$classmodel_1_1_m_automovel.html#a8103af84fe4e0afd88bdf548be71b987"];
  Node9 -> Node18 [color="midnightblue",fontsize="10",style="solid"];
  Node18 [label="model.MAutomovel.setAnoAquisicao",height=0.2,width=0.4,color="black", fillcolor="white", style="filled",URL="$classmodel_1_1_m_automovel.html#a7668ec022fe0e5af6d625f44ce089e10"];
  Node9 -> Node19 [color="midnightblue",fontsize="10",style="solid"];
  Node19 [label="model.MAutomovel.setAnoVenda",height=0.2,width=0.4,color="black", fillcolor="white", style="filled",URL="$classmodel_1_1_m_automovel.html#aacaabb26cff37eac1ed38fcf22bd5207"];
  Node9 -> Node20 [color="midnightblue",fontsize="10",style="solid"];
  Node20 [label="model.MAutomovel.setPreco\lAquisicao",height=0.2,width=0.4,color="black", fillcolor="white", style="filled",URL="$classmodel_1_1_m_automovel.html#a26e759f54d0972c2844cdbf3b7051e0f"];
  Node9 -> Node21 [color="midnightblue",fontsize="10",style="solid"];
  Node21 [label="model.MAutomovel.setPreco\lVenda",height=0.2,width=0.4,color="black", fillcolor="white", style="filled",URL="$classmodel_1_1_m_automovel.html#a1e6ce4784cf260110954cc471f6c7ac7"];
  Node9 -> Node6 [color="midnightblue",fontsize="10",style="solid"];
  Node1 -> Node22 [color="midnightblue",fontsize="10",style="solid"];
  Node22 [label="model.MAutomovel.getAutomovelId",height=0.2,width=0.4,color="black", fillcolor="white", style="filled",URL="$classmodel_1_1_m_automovel.html#a0e5360d9418284d08c053a439ef35a26"];
  Node1 -> Node23 [color="midnightblue",fontsize="10",style="solid"];
  Node23 [label="model.MAutomovel.getMarca",height=0.2,width=0.4,color="black", fillcolor="white", style="filled",URL="$classmodel_1_1_m_automovel.html#a96ec5e78b0a75fc3999b4d58cea4a0cb"];
  Node1 -> Node24 [color="midnightblue",fontsize="10",style="solid"];
  Node24 [label="model.MAutomovel.getModelo",height=0.2,width=0.4,color="black", fillcolor="white", style="filled",URL="$classmodel_1_1_m_automovel.html#ac6c9df788ec43016c525692cbf510131"];
  Node1 -> Node25 [color="midnightblue",fontsize="10",style="solid"];
  Node25 [label="model.MAutomovel.getMatricula",height=0.2,width=0.4,color="black", fillcolor="white", style="filled",URL="$classmodel_1_1_m_automovel.html#ace638c4e2e8ca8fc4095e250264d4cf2"];
  Node1 -> Node10 [color="midnightblue",fontsize="10",style="solid"];
  Node1 -> Node26 [color="midnightblue",fontsize="10",style="solid"];
  Node26 [label="gui.VRevisoes.listacombo",height=0.2,width=0.4,color="black", fillcolor="white", style="filled",URL="$classgui_1_1_v_revisoes.html#a3b129b0ccdc5ee6b7e21f94ecc2881d0"];
  Node26 -> Node4 [color="midnightblue",fontsize="10",style="solid"];
  Node26 -> Node6 [color="midnightblue",fontsize="10",style="solid"];
  Node1 -> Node27 [color="midnightblue",fontsize="10",style="solid"];
  Node27 [label="dao.DaoRevisoes.gravarDb",height=0.2,width=0.4,color="black", fillcolor="white", style="filled",URL="$classdao_1_1_dao_revisoes.html#ac5bcb208f59c0be2376e3df51c169e67"];
  Node27 -> Node4 [color="midnightblue",fontsize="10",style="solid"];
  Node27 -> Node5 [color="midnightblue",fontsize="10",style="solid"];
  Node27 -> Node28 [color="midnightblue",fontsize="10",style="solid"];
  Node28 [label="model.MRevisao.getKmsautomovel",height=0.2,width=0.4,color="black", fillcolor="white", style="filled",URL="$classmodel_1_1_m_revisao.html#a19f78f6722874eacbc8275d427fdef3d"];
  Node27 -> Node29 [color="midnightblue",fontsize="10",style="solid"];
  Node29 [label="model.MRevisao.getData",height=0.2,width=0.4,color="black", fillcolor="white", style="filled",URL="$classmodel_1_1_m_revisao.html#a5ba8b0822189a5fcf90f479ec02a4b16"];
  Node27 -> Node30 [color="midnightblue",fontsize="10",style="solid"];
  Node30 [label="model.MRevisao.getObeservacoes",height=0.2,width=0.4,color="black", fillcolor="white", style="filled",URL="$classmodel_1_1_m_revisao.html#ac88982d4c2908eaf2edce96968e1b083"];
  Node27 -> Node31 [color="midnightblue",fontsize="10",style="solid"];
  Node31 [label="model.MRevisao.getOficina",height=0.2,width=0.4,color="black", fillcolor="white", style="filled",URL="$classmodel_1_1_m_revisao.html#a500500ed0b52b0f2ee946660cb61745d"];
  Node27 -> Node6 [color="midnightblue",fontsize="10",style="solid"];
  Node1 -> Node32 [color="midnightblue",fontsize="10",style="solid"];
  Node32 [label="dao.DaoRevisoes.editarDb",height=0.2,width=0.4,color="black", fillcolor="white", style="filled",URL="$classdao_1_1_dao_revisoes.html#a3799279552fc30c473ec0fc4fd8db646"];
  Node32 -> Node4 [color="midnightblue",fontsize="10",style="solid"];
  Node32 -> Node5 [color="midnightblue",fontsize="10",style="solid"];
  Node32 -> Node28 [color="midnightblue",fontsize="10",style="solid"];
  Node32 -> Node29 [color="midnightblue",fontsize="10",style="solid"];
  Node32 -> Node30 [color="midnightblue",fontsize="10",style="solid"];
  Node32 -> Node31 [color="midnightblue",fontsize="10",style="solid"];
  Node32 -> Node6 [color="midnightblue",fontsize="10",style="solid"];
  Node1 -> Node33 [color="midnightblue",fontsize="10",style="solid"];
  Node33 [label="dao.DaoAutomovel.seleciona\lLista",height=0.2,width=0.4,color="black", fillcolor="white", style="filled",URL="$classdao_1_1_dao_automovel.html#a085be97d6104414e31a0f046eb52f502"];
  Node33 -> Node4 [color="midnightblue",fontsize="10",style="solid"];
  Node33 -> Node10 [color="midnightblue",fontsize="10",style="solid"];
  Node33 -> Node11 [color="midnightblue",fontsize="10",style="solid"];
  Node33 -> Node12 [color="midnightblue",fontsize="10",style="solid"];
  Node33 -> Node13 [color="midnightblue",fontsize="10",style="solid"];
  Node33 -> Node14 [color="midnightblue",fontsize="10",style="solid"];
  Node33 -> Node15 [color="midnightblue",fontsize="10",style="solid"];
  Node33 -> Node16 [color="midnightblue",fontsize="10",style="solid"];
  Node33 -> Node17 [color="midnightblue",fontsize="10",style="solid"];
  Node33 -> Node18 [color="midnightblue",fontsize="10",style="solid"];
  Node33 -> Node19 [color="midnightblue",fontsize="10",style="solid"];
  Node33 -> Node20 [color="midnightblue",fontsize="10",style="solid"];
  Node33 -> Node21 [color="midnightblue",fontsize="10",style="solid"];
  Node33 -> Node6 [color="midnightblue",fontsize="10",style="solid"];
}
