digraph "dao.NumberRenderer"
{
  edge [fontname="Helvetica",fontsize="10",labelfontname="Helvetica",labelfontsize="10"];
  node [fontname="Helvetica",fontsize="10",shape=record];
  Node1 [label="dao.NumberRenderer",height=0.2,width=0.4,color="black", fillcolor="grey75", style="filled", fontcolor="black"];
  Node2 -> Node1 [dir="back",color="midnightblue",fontsize="10",style="solid"];
  Node2 [label="dao.FormatRenderer",height=0.2,width=0.4,color="black", fillcolor="white", style="filled",URL="$classdao_1_1_format_renderer.html"];
  Node3 -> Node2 [dir="back",color="midnightblue",fontsize="10",style="solid"];
  Node3 [label="DefaultTableCellRenderer",height=0.2,width=0.4,color="grey75", fillcolor="white", style="filled"];
  Node4 -> Node2 [dir="back",color="darkorchid3",fontsize="10",style="dashed",label=" formatter" ];
  Node4 [label="Format",height=0.2,width=0.4,color="grey75", fillcolor="white", style="filled"];
}
