digraph "dao.DaoAutomovel.gravarDb"
{
  edge [fontname="Helvetica",fontsize="10",labelfontname="Helvetica",labelfontsize="10"];
  node [fontname="Helvetica",fontsize="10",shape=record];
  rankdir="LR";
  Node1 [label="dao.DaoAutomovel.gravarDb",height=0.2,width=0.4,color="black", fillcolor="grey75", style="filled", fontcolor="black"];
  Node1 -> Node2 [color="midnightblue",fontsize="10",style="solid"];
  Node2 [label="driver.ConnDb.ligacaoDb",height=0.2,width=0.4,color="black", fillcolor="white", style="filled",URL="$classdriver_1_1_conn_db.html#af8a2d4bb54d48391d0b578f602e86f60"];
  Node1 -> Node3 [color="midnightblue",fontsize="10",style="solid"];
  Node3 [label="model.MAutomovel.getMarca",height=0.2,width=0.4,color="black", fillcolor="white", style="filled",URL="$classmodel_1_1_m_automovel.html#a96ec5e78b0a75fc3999b4d58cea4a0cb"];
  Node1 -> Node4 [color="midnightblue",fontsize="10",style="solid"];
  Node4 [label="model.MAutomovel.getModelo",height=0.2,width=0.4,color="black", fillcolor="white", style="filled",URL="$classmodel_1_1_m_automovel.html#ac6c9df788ec43016c525692cbf510131"];
  Node1 -> Node5 [color="midnightblue",fontsize="10",style="solid"];
  Node5 [label="model.MAutomovel.getCor",height=0.2,width=0.4,color="black", fillcolor="white", style="filled",URL="$classmodel_1_1_m_automovel.html#ad2c0884accf02106b09ebb06bc035583"];
  Node1 -> Node6 [color="midnightblue",fontsize="10",style="solid"];
  Node6 [label="model.MAutomovel.getCilindrada",height=0.2,width=0.4,color="black", fillcolor="white", style="filled",URL="$classmodel_1_1_m_automovel.html#ac0c63b8a85c77f150af763fd25ae2703"];
  Node1 -> Node7 [color="midnightblue",fontsize="10",style="solid"];
  Node7 [label="model.MAutomovel.getMatricula",height=0.2,width=0.4,color="black", fillcolor="white", style="filled",URL="$classmodel_1_1_m_automovel.html#ace638c4e2e8ca8fc4095e250264d4cf2"];
  Node1 -> Node8 [color="midnightblue",fontsize="10",style="solid"];
  Node8 [label="model.MAutomovel.getCombustivel",height=0.2,width=0.4,color="black", fillcolor="white", style="filled",URL="$classmodel_1_1_m_automovel.html#a544024bf0c7038a0af3523deca2d150d"];
  Node1 -> Node9 [color="midnightblue",fontsize="10",style="solid"];
  Node9 [label="model.MAutomovel.getAnoAquisicao",height=0.2,width=0.4,color="black", fillcolor="white", style="filled",URL="$classmodel_1_1_m_automovel.html#acbf7345aa3377361bedeba7c91e6b804"];
  Node1 -> Node10 [color="midnightblue",fontsize="10",style="solid"];
  Node10 [label="model.MAutomovel.getAnoVenda",height=0.2,width=0.4,color="black", fillcolor="white", style="filled",URL="$classmodel_1_1_m_automovel.html#acc013a7e453b2f759e24aef81ceb94d5"];
  Node1 -> Node11 [color="midnightblue",fontsize="10",style="solid"];
  Node11 [label="model.MAutomovel.getPreco\lAquisicao",height=0.2,width=0.4,color="black", fillcolor="white", style="filled",URL="$classmodel_1_1_m_automovel.html#a77476eb9eb3e06401bd56a8fa118bae8"];
  Node1 -> Node12 [color="midnightblue",fontsize="10",style="solid"];
  Node12 [label="model.MAutomovel.getPreco\lVenda",height=0.2,width=0.4,color="black", fillcolor="white", style="filled",URL="$classmodel_1_1_m_automovel.html#a7d1b15ef96457a3672e940f86c746c37"];
  Node1 -> Node13 [color="midnightblue",fontsize="10",style="solid"];
  Node13 [label="driver.ConnDb.desligaDb",height=0.2,width=0.4,color="black", fillcolor="white", style="filled",URL="$classdriver_1_1_conn_db.html#a1b106248ed8f299763e27b1e6fb730f7"];
}
