digraph "dao.DaoTaxaImposto"
{
  edge [fontname="Helvetica",fontsize="10",labelfontname="Helvetica",labelfontsize="10"];
  node [fontname="Helvetica",fontsize="10",shape=record];
  Node1 [label="dao.DaoTaxaImposto",height=0.2,width=0.4,color="black", fillcolor="grey75", style="filled", fontcolor="black"];
  Node2 -> Node1 [dir="back",color="darkorchid3",fontsize="10",style="dashed",label=" ligacao" ];
  Node2 [label="driver.ConnDb",height=0.2,width=0.4,color="black", fillcolor="white", style="filled",URL="$classdriver_1_1_conn_db.html"];
  Node3 -> Node2 [dir="back",color="darkorchid3",fontsize="10",style="dashed",label=" stm" ];
  Node3 [label="Statement",height=0.2,width=0.4,color="grey75", fillcolor="white", style="filled"];
  Node4 -> Node2 [dir="back",color="darkorchid3",fontsize="10",style="dashed",label=" con" ];
  Node4 [label="Connection",height=0.2,width=0.4,color="grey75", fillcolor="white", style="filled"];
  Node5 -> Node2 [dir="back",color="darkorchid3",fontsize="10",style="dashed",label=" rs" ];
  Node5 [label="ResultSet",height=0.2,width=0.4,color="grey75", fillcolor="white", style="filled"];
  Node6 -> Node1 [dir="back",color="darkorchid3",fontsize="10",style="dashed",label=" modelo" ];
  Node6 [label="model.MTaxaImposto",height=0.2,width=0.4,color="black", fillcolor="white", style="filled",URL="$classmodel_1_1_m_taxa_imposto.html"];
  Node7 -> Node6 [dir="back",color="darkorchid3",fontsize="10",style="dashed",label=" dataValidade\ndata" ];
  Node7 [label="Date",height=0.2,width=0.4,color="grey75", fillcolor="white", style="filled"];
}
