digraph "gui.VAbastecimento.main"
{
  edge [fontname="Helvetica",fontsize="10",labelfontname="Helvetica",labelfontsize="10"];
  node [fontname="Helvetica",fontsize="10",shape=record];
  rankdir="LR";
  Node1 [label="gui.VAbastecimento.main",height=0.2,width=0.4,color="black", fillcolor="grey75", style="filled", fontcolor="black"];
  Node1 -> Node2 [color="midnightblue",fontsize="10",style="solid"];
  Node2 [label="gui.VAbastecimento.VAbastecimento",height=0.2,width=0.4,color="black", fillcolor="white", style="filled",URL="$classgui_1_1_v_abastecimento.html#a95f53453b379fcb96ca371a838e473cc"];
  Node2 -> Node3 [color="midnightblue",fontsize="10",style="solid"];
  Node3 [label="model.MAbastecimento.set\lAutomovelId",height=0.2,width=0.4,color="black", fillcolor="white", style="filled",URL="$classmodel_1_1_m_abastecimento.html#adfc4d1ec5a0506f774b7dff1949da5e5"];
  Node2 -> Node4 [color="midnightblue",fontsize="10",style="solid"];
  Node4 [label="dao.DaoAbastecimento.apagarDb",height=0.2,width=0.4,color="black", fillcolor="white", style="filled",URL="$classdao_1_1_dao_abastecimento.html#a0b6b7dc9344f2bf8dc49d18e97902055"];
  Node4 -> Node5 [color="midnightblue",fontsize="10",style="solid"];
  Node5 [label="driver.ConnDb.ligacaoDb",height=0.2,width=0.4,color="black", fillcolor="white", style="filled",URL="$classdriver_1_1_conn_db.html#af8a2d4bb54d48391d0b578f602e86f60"];
  Node4 -> Node6 [color="midnightblue",fontsize="10",style="solid"];
  Node6 [label="model.MAbastecimento.get\lAbastecimentoId",height=0.2,width=0.4,color="black", fillcolor="white", style="filled",URL="$classmodel_1_1_m_abastecimento.html#af92fe5ca411ca3827c8898d4dd6cf3b5"];
  Node4 -> Node7 [color="midnightblue",fontsize="10",style="solid"];
  Node7 [label="driver.ConnDb.desligaDb",height=0.2,width=0.4,color="black", fillcolor="white", style="filled",URL="$classdriver_1_1_conn_db.html#a1b106248ed8f299763e27b1e6fb730f7"];
  Node2 -> Node8 [color="midnightblue",fontsize="10",style="solid"];
  Node8 [label="gui.VAbastecimento.preenche\lTabela",height=0.2,width=0.4,color="black", fillcolor="white", style="filled",URL="$classgui_1_1_v_abastecimento.html#a39e7eab0f1d2cb2e808cee4464b6d1d0"];
  Node8 -> Node5 [color="midnightblue",fontsize="10",style="solid"];
  Node8 -> Node7 [color="midnightblue",fontsize="10",style="solid"];
  Node2 -> Node9 [color="midnightblue",fontsize="10",style="solid"];
  Node9 [label="gui.VAbastecimento.preenche\lTabela2",height=0.2,width=0.4,color="black", fillcolor="white", style="filled",URL="$classgui_1_1_v_abastecimento.html#a530ca2adc455904e12708956607c26a7"];
  Node9 -> Node5 [color="midnightblue",fontsize="10",style="solid"];
  Node9 -> Node10 [color="midnightblue",fontsize="10",style="solid"];
  Node10 [label="dao.FormatRenderer.getDate\lTimeRenderer",height=0.2,width=0.4,color="black", fillcolor="white", style="filled",URL="$classdao_1_1_format_renderer.html#a3beae989d6bf3776310dc60110662ac7"];
  Node10 -> Node11 [color="midnightblue",fontsize="10",style="solid"];
  Node11 [label="dao.FormatRenderer.Format\lRenderer",height=0.2,width=0.4,color="black", fillcolor="white", style="filled",URL="$classdao_1_1_format_renderer.html#a013b2c54652aa5c33a5b695adc46cf2f"];
  Node9 -> Node12 [color="midnightblue",fontsize="10",style="solid"];
  Node12 [label="dao.NumberRenderer.getCurrency\lRenderer",height=0.2,width=0.4,color="red", fillcolor="white", style="filled",URL="$classdao_1_1_number_renderer.html#af3c2c2a3075bf4fec64e2f970e5eb7ff"];
  Node9 -> Node7 [color="midnightblue",fontsize="10",style="solid"];
  Node2 -> Node13 [color="midnightblue",fontsize="10",style="solid"];
  Node13 [label="model.MAutomovel.setPesquisa",height=0.2,width=0.4,color="black", fillcolor="white", style="filled",URL="$classmodel_1_1_m_automovel.html#a4321a02f0df65d6de15bb0b58ff6387a"];
  Node2 -> Node14 [color="midnightblue",fontsize="10",style="solid"];
  Node14 [label="dao.DaoAutomovel.procura\lAutomovel",height=0.2,width=0.4,color="black", fillcolor="white", style="filled",URL="$classdao_1_1_dao_automovel.html#a90a40897922cb8202c7d229e41e239e4"];
  Node14 -> Node5 [color="midnightblue",fontsize="10",style="solid"];
  Node14 -> Node15 [color="midnightblue",fontsize="10",style="solid"];
  Node15 [label="model.MAutomovel.getPesquisa",height=0.2,width=0.4,color="black", fillcolor="white", style="filled",URL="$classmodel_1_1_m_automovel.html#ae2fabd760d32b3982c7a1837a942db70"];
  Node14 -> Node16 [color="midnightblue",fontsize="10",style="solid"];
  Node16 [label="model.MAutomovel.setAutomovelId",height=0.2,width=0.4,color="black", fillcolor="white", style="filled",URL="$classmodel_1_1_m_automovel.html#acd6a4076c6494c01a719f4cb6d090846"];
  Node14 -> Node17 [color="midnightblue",fontsize="10",style="solid"];
  Node17 [label="model.MAutomovel.setMarca",height=0.2,width=0.4,color="black", fillcolor="white", style="filled",URL="$classmodel_1_1_m_automovel.html#a961b4c00727f1dada646715316135d49"];
  Node14 -> Node18 [color="midnightblue",fontsize="10",style="solid"];
  Node18 [label="model.MAutomovel.setModelo",height=0.2,width=0.4,color="black", fillcolor="white", style="filled",URL="$classmodel_1_1_m_automovel.html#afb6d82a14b8aaa75b2ef6879208f4aac"];
  Node14 -> Node19 [color="midnightblue",fontsize="10",style="solid"];
  Node19 [label="model.MAutomovel.setCor",height=0.2,width=0.4,color="black", fillcolor="white", style="filled",URL="$classmodel_1_1_m_automovel.html#a6c925592a387f5e2f016e546c3c6a275"];
  Node14 -> Node20 [color="midnightblue",fontsize="10",style="solid"];
  Node20 [label="model.MAutomovel.setCilindrada",height=0.2,width=0.4,color="black", fillcolor="white", style="filled",URL="$classmodel_1_1_m_automovel.html#a8e0ff3ce50c8b292761f41974fb0754a"];
  Node14 -> Node21 [color="midnightblue",fontsize="10",style="solid"];
  Node21 [label="model.MAutomovel.setMatricula",height=0.2,width=0.4,color="black", fillcolor="white", style="filled",URL="$classmodel_1_1_m_automovel.html#a9ddd3b13851bc912a269c271c2950b45"];
  Node14 -> Node22 [color="midnightblue",fontsize="10",style="solid"];
  Node22 [label="model.MAutomovel.setCombustivel",height=0.2,width=0.4,color="black", fillcolor="white", style="filled",URL="$classmodel_1_1_m_automovel.html#a8103af84fe4e0afd88bdf548be71b987"];
  Node14 -> Node23 [color="midnightblue",fontsize="10",style="solid"];
  Node23 [label="model.MAutomovel.setAnoAquisicao",height=0.2,width=0.4,color="black", fillcolor="white", style="filled",URL="$classmodel_1_1_m_automovel.html#a7668ec022fe0e5af6d625f44ce089e10"];
  Node14 -> Node24 [color="midnightblue",fontsize="10",style="solid"];
  Node24 [label="model.MAutomovel.setAnoVenda",height=0.2,width=0.4,color="black", fillcolor="white", style="filled",URL="$classmodel_1_1_m_automovel.html#aacaabb26cff37eac1ed38fcf22bd5207"];
  Node14 -> Node25 [color="midnightblue",fontsize="10",style="solid"];
  Node25 [label="model.MAutomovel.setPreco\lAquisicao",height=0.2,width=0.4,color="black", fillcolor="white", style="filled",URL="$classmodel_1_1_m_automovel.html#a26e759f54d0972c2844cdbf3b7051e0f"];
  Node14 -> Node26 [color="midnightblue",fontsize="10",style="solid"];
  Node26 [label="model.MAutomovel.setPreco\lVenda",height=0.2,width=0.4,color="black", fillcolor="white", style="filled",URL="$classmodel_1_1_m_automovel.html#a1e6ce4784cf260110954cc471f6c7ac7"];
  Node14 -> Node7 [color="midnightblue",fontsize="10",style="solid"];
  Node2 -> Node27 [color="midnightblue",fontsize="10",style="solid"];
  Node27 [label="model.MAutomovel.getAutomovelId",height=0.2,width=0.4,color="black", fillcolor="white", style="filled",URL="$classmodel_1_1_m_automovel.html#a0e5360d9418284d08c053a439ef35a26"];
  Node2 -> Node28 [color="midnightblue",fontsize="10",style="solid"];
  Node28 [label="model.MAutomovel.getMarca",height=0.2,width=0.4,color="black", fillcolor="white", style="filled",URL="$classmodel_1_1_m_automovel.html#a96ec5e78b0a75fc3999b4d58cea4a0cb"];
  Node2 -> Node29 [color="midnightblue",fontsize="10",style="solid"];
  Node29 [label="model.MAutomovel.getModelo",height=0.2,width=0.4,color="black", fillcolor="white", style="filled",URL="$classmodel_1_1_m_automovel.html#ac6c9df788ec43016c525692cbf510131"];
  Node2 -> Node30 [color="midnightblue",fontsize="10",style="solid"];
  Node30 [label="model.MAutomovel.getMatricula",height=0.2,width=0.4,color="black", fillcolor="white", style="filled",URL="$classmodel_1_1_m_automovel.html#ace638c4e2e8ca8fc4095e250264d4cf2"];
  Node2 -> Node31 [color="midnightblue",fontsize="10",style="solid"];
  Node31 [label="model.MAutomovel.getCombustivel",height=0.2,width=0.4,color="black", fillcolor="white", style="filled",URL="$classmodel_1_1_m_automovel.html#a544024bf0c7038a0af3523deca2d150d"];
  Node2 -> Node15 [color="midnightblue",fontsize="10",style="solid"];
  Node2 -> Node32 [color="midnightblue",fontsize="10",style="solid"];
  Node32 [label="model.MAbastecimento.set\lPesquisa",height=0.2,width=0.4,color="black", fillcolor="white", style="filled",URL="$classmodel_1_1_m_abastecimento.html#a42ddc6cd15c739c624aaea5c4fed2eb5"];
  Node2 -> Node33 [color="midnightblue",fontsize="10",style="solid"];
  Node33 [label="dao.DaoAbastecimento.procura\lAbastecimento",height=0.2,width=0.4,color="black", fillcolor="white", style="filled",URL="$classdao_1_1_dao_abastecimento.html#ade37b89f248892c41e492a39992f3dfe"];
  Node33 -> Node5 [color="midnightblue",fontsize="10",style="solid"];
  Node33 -> Node34 [color="midnightblue",fontsize="10",style="solid"];
  Node34 [label="model.MAbastecimento.get\lPesquisa",height=0.2,width=0.4,color="black", fillcolor="white", style="filled",URL="$classmodel_1_1_m_abastecimento.html#a351ab575b9ee3ea9f10933df2b8d0ceb"];
  Node33 -> Node35 [color="midnightblue",fontsize="10",style="solid"];
  Node35 [label="model.MAbastecimento.set\lAbastecimentoId",height=0.2,width=0.4,color="black", fillcolor="white", style="filled",URL="$classmodel_1_1_m_abastecimento.html#afd5bdf0a2a2c5804ddf9e80ef6ccfb23"];
  Node33 -> Node3 [color="midnightblue",fontsize="10",style="solid"];
  Node33 -> Node36 [color="midnightblue",fontsize="10",style="solid"];
  Node36 [label="model.MAbastecimento.setData",height=0.2,width=0.4,color="black", fillcolor="white", style="filled",URL="$classmodel_1_1_m_abastecimento.html#a3c0e43de0240789339f911b44346fbd9"];
  Node33 -> Node37 [color="midnightblue",fontsize="10",style="solid"];
  Node37 [label="model.MAbastecimento.set\lLocal",height=0.2,width=0.4,color="black", fillcolor="white", style="filled",URL="$classmodel_1_1_m_abastecimento.html#aa16d94429313a93b60b7e8fd14505433"];
  Node33 -> Node38 [color="midnightblue",fontsize="10",style="solid"];
  Node38 [label="model.MAbastecimento.set\lKmsautomovel",height=0.2,width=0.4,color="black", fillcolor="white", style="filled",URL="$classmodel_1_1_m_abastecimento.html#afbb5c076de96822d3365808e73b17431"];
  Node33 -> Node39 [color="midnightblue",fontsize="10",style="solid"];
  Node39 [label="model.MAbastecimento.set\lValor",height=0.2,width=0.4,color="black", fillcolor="white", style="filled",URL="$classmodel_1_1_m_abastecimento.html#a810929a39f50a3f5e86ac83463e73241"];
  Node33 -> Node40 [color="midnightblue",fontsize="10",style="solid"];
  Node40 [label="model.MAbastecimento.set\lLitros",height=0.2,width=0.4,color="black", fillcolor="white", style="filled",URL="$classmodel_1_1_m_abastecimento.html#a2b31c79ebfde0be027278fedbacde086"];
  Node33 -> Node7 [color="midnightblue",fontsize="10",style="solid"];
  Node2 -> Node41 [color="midnightblue",fontsize="10",style="solid"];
  Node41 [label="model.MAbastecimento.get\lAutomovelId",height=0.2,width=0.4,color="black", fillcolor="white", style="filled",URL="$classmodel_1_1_m_abastecimento.html#ae0887410b1607d5e23f78fc8a6ba3f57"];
  Node2 -> Node42 [color="midnightblue",fontsize="10",style="solid"];
  Node42 [label="model.MAbastecimento.getData",height=0.2,width=0.4,color="black", fillcolor="white", style="filled",URL="$classmodel_1_1_m_abastecimento.html#a4ee7446a90069026fa4807ae46b8d207"];
  Node2 -> Node43 [color="midnightblue",fontsize="10",style="solid"];
  Node43 [label="model.MAbastecimento.get\lLocal",height=0.2,width=0.4,color="black", fillcolor="white", style="filled",URL="$classmodel_1_1_m_abastecimento.html#a61d4734bf4b8f387d84f20ff718e5f67"];
  Node2 -> Node44 [color="midnightblue",fontsize="10",style="solid"];
  Node44 [label="model.MAbastecimento.get\lKmsautomovel",height=0.2,width=0.4,color="black", fillcolor="white", style="filled",URL="$classmodel_1_1_m_abastecimento.html#a3dbb3843c5dc85225c5d6f8fc1279798"];
  Node2 -> Node45 [color="midnightblue",fontsize="10",style="solid"];
  Node45 [label="model.MAbastecimento.get\lValor",height=0.2,width=0.4,color="black", fillcolor="white", style="filled",URL="$classmodel_1_1_m_abastecimento.html#a4d0ef9a1d9f501d71c71cfce3a8ce16b"];
  Node2 -> Node46 [color="midnightblue",fontsize="10",style="solid"];
  Node46 [label="model.MAbastecimento.get\lLitros",height=0.2,width=0.4,color="black", fillcolor="white", style="filled",URL="$classmodel_1_1_m_abastecimento.html#ac71f50f3f97b61b6d8184754296058e5"];
  Node2 -> Node36 [color="midnightblue",fontsize="10",style="solid"];
  Node2 -> Node37 [color="midnightblue",fontsize="10",style="solid"];
  Node2 -> Node38 [color="midnightblue",fontsize="10",style="solid"];
  Node2 -> Node39 [color="midnightblue",fontsize="10",style="solid"];
  Node2 -> Node40 [color="midnightblue",fontsize="10",style="solid"];
  Node2 -> Node47 [color="midnightblue",fontsize="10",style="solid"];
  Node47 [label="dao.DaoAbastecimento.gravarDb",height=0.2,width=0.4,color="black", fillcolor="white", style="filled",URL="$classdao_1_1_dao_abastecimento.html#aaffb48da9e1f3289709483d26001642e"];
  Node47 -> Node5 [color="midnightblue",fontsize="10",style="solid"];
  Node47 -> Node41 [color="midnightblue",fontsize="10",style="solid"];
  Node47 -> Node42 [color="midnightblue",fontsize="10",style="solid"];
  Node47 -> Node43 [color="midnightblue",fontsize="10",style="solid"];
  Node47 -> Node44 [color="midnightblue",fontsize="10",style="solid"];
  Node47 -> Node45 [color="midnightblue",fontsize="10",style="solid"];
  Node47 -> Node46 [color="midnightblue",fontsize="10",style="solid"];
  Node47 -> Node7 [color="midnightblue",fontsize="10",style="solid"];
  Node2 -> Node35 [color="midnightblue",fontsize="10",style="solid"];
  Node2 -> Node48 [color="midnightblue",fontsize="10",style="solid"];
  Node48 [label="dao.DaoAbastecimento.editarDb",height=0.2,width=0.4,color="black", fillcolor="white", style="filled",URL="$classdao_1_1_dao_abastecimento.html#a3a9f0e37608fb61eaf18a3541bd4b3fe"];
  Node48 -> Node5 [color="midnightblue",fontsize="10",style="solid"];
  Node48 -> Node41 [color="midnightblue",fontsize="10",style="solid"];
  Node48 -> Node42 [color="midnightblue",fontsize="10",style="solid"];
  Node48 -> Node43 [color="midnightblue",fontsize="10",style="solid"];
  Node48 -> Node44 [color="midnightblue",fontsize="10",style="solid"];
  Node48 -> Node45 [color="midnightblue",fontsize="10",style="solid"];
  Node48 -> Node46 [color="midnightblue",fontsize="10",style="solid"];
  Node48 -> Node6 [color="midnightblue",fontsize="10",style="solid"];
  Node48 -> Node7 [color="midnightblue",fontsize="10",style="solid"];
  Node2 -> Node49 [color="midnightblue",fontsize="10",style="solid"];
  Node49 [label="dao.DaoAutomovel.seleciona\lLista",height=0.2,width=0.4,color="black", fillcolor="white", style="filled",URL="$classdao_1_1_dao_automovel.html#a085be97d6104414e31a0f046eb52f502"];
  Node49 -> Node5 [color="midnightblue",fontsize="10",style="solid"];
  Node49 -> Node15 [color="midnightblue",fontsize="10",style="solid"];
  Node49 -> Node16 [color="midnightblue",fontsize="10",style="solid"];
  Node49 -> Node17 [color="midnightblue",fontsize="10",style="solid"];
  Node49 -> Node18 [color="midnightblue",fontsize="10",style="solid"];
  Node49 -> Node19 [color="midnightblue",fontsize="10",style="solid"];
  Node49 -> Node20 [color="midnightblue",fontsize="10",style="solid"];
  Node49 -> Node21 [color="midnightblue",fontsize="10",style="solid"];
  Node49 -> Node22 [color="midnightblue",fontsize="10",style="solid"];
  Node49 -> Node23 [color="midnightblue",fontsize="10",style="solid"];
  Node49 -> Node24 [color="midnightblue",fontsize="10",style="solid"];
  Node49 -> Node25 [color="midnightblue",fontsize="10",style="solid"];
  Node49 -> Node26 [color="midnightblue",fontsize="10",style="solid"];
  Node49 -> Node7 [color="midnightblue",fontsize="10",style="solid"];
  Node2 -> Node50 [color="midnightblue",fontsize="10",style="solid"];
  Node50 [label="dao.DaoAbastecimento.seleciona\lLista",height=0.2,width=0.4,color="black", fillcolor="white", style="filled",URL="$classdao_1_1_dao_abastecimento.html#a306f587d30b1072f95f3e7a4ae433020"];
  Node50 -> Node5 [color="midnightblue",fontsize="10",style="solid"];
  Node50 -> Node34 [color="midnightblue",fontsize="10",style="solid"];
  Node50 -> Node35 [color="midnightblue",fontsize="10",style="solid"];
  Node50 -> Node3 [color="midnightblue",fontsize="10",style="solid"];
  Node50 -> Node36 [color="midnightblue",fontsize="10",style="solid"];
  Node50 -> Node37 [color="midnightblue",fontsize="10",style="solid"];
  Node50 -> Node38 [color="midnightblue",fontsize="10",style="solid"];
  Node50 -> Node39 [color="midnightblue",fontsize="10",style="solid"];
  Node50 -> Node40 [color="midnightblue",fontsize="10",style="solid"];
  Node50 -> Node7 [color="midnightblue",fontsize="10",style="solid"];
  Node2 -> Node6 [color="midnightblue",fontsize="10",style="solid"];
}
