digraph "dao.DaoRevisoes"
{
  edge [fontname="Helvetica",fontsize="10",labelfontname="Helvetica",labelfontsize="10"];
  node [fontname="Helvetica",fontsize="10",shape=record];
  Node1 [label="dao.DaoRevisoes",height=0.2,width=0.4,color="black", fillcolor="grey75", style="filled", fontcolor="black"];
  Node2 -> Node1 [dir="back",color="darkorchid3",fontsize="10",style="dashed",label=" ligacaodetalhes\nligacaorevisao\nligacaoautomovel" ,fontname="Helvetica"];
  Node2 [label="driver.ConnDb",height=0.2,width=0.4,color="black", fillcolor="white", style="filled",URL="$classdriver_1_1_conn_db.html"];
  Node3 -> Node2 [dir="back",color="darkorchid3",fontsize="10",style="dashed",label=" stm" ,fontname="Helvetica"];
  Node3 [label="Statement",height=0.2,width=0.4,color="grey75", fillcolor="white", style="filled"];
  Node4 -> Node2 [dir="back",color="darkorchid3",fontsize="10",style="dashed",label=" con" ,fontname="Helvetica"];
  Node4 [label="Connection",height=0.2,width=0.4,color="grey75", fillcolor="white", style="filled"];
  Node5 -> Node2 [dir="back",color="darkorchid3",fontsize="10",style="dashed",label=" rs" ,fontname="Helvetica"];
  Node5 [label="ResultSet",height=0.2,width=0.4,color="grey75", fillcolor="white", style="filled"];
  Node6 -> Node1 [dir="back",color="darkorchid3",fontsize="10",style="dashed",label=" modelorevisao" ,fontname="Helvetica"];
  Node6 [label="model.MRevisao",height=0.2,width=0.4,color="black", fillcolor="white", style="filled",URL="$classmodel_1_1_m_revisao.html"];
  Node7 -> Node6 [dir="back",color="darkorchid3",fontsize="10",style="dashed",label=" data" ,fontname="Helvetica"];
  Node7 [label="Date",height=0.2,width=0.4,color="grey75", fillcolor="white", style="filled"];
  Node8 -> Node1 [dir="back",color="darkorchid3",fontsize="10",style="dashed",label=" modeloautomovel" ,fontname="Helvetica"];
  Node8 [label="model.MAutomovel",height=0.2,width=0.4,color="black", fillcolor="white", style="filled",URL="$classmodel_1_1_m_automovel.html"];
  Node9 -> Node1 [dir="back",color="darkorchid3",fontsize="10",style="dashed",label=" modeloservicos" ,fontname="Helvetica"];
  Node9 [label="model.MServicos",height=0.2,width=0.4,color="black", fillcolor="white", style="filled",URL="$classmodel_1_1_m_servicos.html"];
}
