digraph "gui.VTipoCombustivel"
{
  edge [fontname="Helvetica",fontsize="10",labelfontname="Helvetica",labelfontsize="10"];
  node [fontname="Helvetica",fontsize="10",shape=record];
  rankdir="LR";
  Node1 [label="gui.VTipoCombustivel",height=0.2,width=0.4,color="black", fillcolor="grey75", style="filled", fontcolor="black"];
  Node2 -> Node1 [dir="back",color="midnightblue",fontsize="10",style="solid",fontname="Helvetica"];
  Node2 [label="JFrame",height=0.2,width=0.4,color="grey75", fillcolor="white", style="filled"];
  Node3 -> Node1 [dir="back",color="darkorchid3",fontsize="10",style="dashed",label=" combustivel\npesquisar" ,fontname="Helvetica"];
  Node3 [label="JTextField",height=0.2,width=0.4,color="grey75", fillcolor="white", style="filled"];
  Node4 -> Node1 [dir="back",color="darkorchid3",fontsize="10",style="dashed",label=" ligacao" ,fontname="Helvetica"];
  Node4 [label="driver.ConnDb",height=0.2,width=0.4,color="black", fillcolor="white", style="filled",URL="$classdriver_1_1_conn_db.html"];
  Node5 -> Node4 [dir="back",color="darkorchid3",fontsize="10",style="dashed",label=" stm" ,fontname="Helvetica"];
  Node5 [label="Statement",height=0.2,width=0.4,color="grey75", fillcolor="white", style="filled"];
  Node6 -> Node4 [dir="back",color="darkorchid3",fontsize="10",style="dashed",label=" con" ,fontname="Helvetica"];
  Node6 [label="Connection",height=0.2,width=0.4,color="grey75", fillcolor="white", style="filled"];
  Node7 -> Node4 [dir="back",color="darkorchid3",fontsize="10",style="dashed",label=" rs" ,fontname="Helvetica"];
  Node7 [label="ResultSet",height=0.2,width=0.4,color="grey75", fillcolor="white", style="filled"];
  Node8 -> Node1 [dir="back",color="darkorchid3",fontsize="10",style="dashed",label=" tableCombustivel" ,fontname="Helvetica"];
  Node8 [label="JTable",height=0.2,width=0.4,color="grey75", fillcolor="white", style="filled"];
  Node9 -> Node1 [dir="back",color="darkorchid3",fontsize="10",style="dashed",label=" modelo" ,fontname="Helvetica"];
  Node9 [label="model.MTipoCombustivel",height=0.2,width=0.4,color="black", fillcolor="white", style="filled",URL="$classmodel_1_1_m_tipo_combustivel.html"];
  Node10 -> Node1 [dir="back",color="darkorchid3",fontsize="10",style="dashed",label=" contentPane" ,fontname="Helvetica"];
  Node10 [label="JPanel",height=0.2,width=0.4,color="grey75", fillcolor="white", style="filled"];
  Node11 -> Node1 [dir="back",color="darkorchid3",fontsize="10",style="dashed",label=" control" ,fontname="Helvetica"];
  Node11 [label="dao.DaoTipoCombustivel",height=0.2,width=0.4,color="black", fillcolor="white", style="filled",URL="$classdao_1_1_dao_tipo_combustivel.html"];
  Node4 -> Node11 [dir="back",color="darkorchid3",fontsize="10",style="dashed",label=" ligacao" ,fontname="Helvetica"];
  Node9 -> Node11 [dir="back",color="darkorchid3",fontsize="10",style="dashed",label=" modelo" ,fontname="Helvetica"];
}
