digraph "gui.VTaxaImposto.VTaxaImposto"
{
  edge [fontname="Helvetica",fontsize="10",labelfontname="Helvetica",labelfontsize="10"];
  node [fontname="Helvetica",fontsize="10",shape=record];
  rankdir="LR";
  Node1 [label="gui.VTaxaImposto.VTaxaImposto",height=0.2,width=0.4,color="black", fillcolor="grey75", style="filled", fontcolor="black"];
  Node1 -> Node2 [color="midnightblue",fontsize="10",style="solid",fontname="Helvetica"];
  Node2 [label="model.MAutomovel.setAutomovelId",height=0.2,width=0.4,color="black", fillcolor="white", style="filled",URL="$classmodel_1_1_m_automovel.html#acd6a4076c6494c01a719f4cb6d090846"];
  Node1 -> Node3 [color="midnightblue",fontsize="10",style="solid",fontname="Helvetica"];
  Node3 [label="dao.DaoAutomovel.apagarDb",height=0.2,width=0.4,color="black", fillcolor="white", style="filled",URL="$classdao_1_1_dao_automovel.html#a663de6c8df66e53f74c201fd5cac1b78"];
  Node3 -> Node4 [color="midnightblue",fontsize="10",style="solid",fontname="Helvetica"];
  Node4 [label="driver.ConnDb.ligacaoDb",height=0.2,width=0.4,color="black", fillcolor="white", style="filled",URL="$classdriver_1_1_conn_db.html#af8a2d4bb54d48391d0b578f602e86f60"];
  Node3 -> Node5 [color="midnightblue",fontsize="10",style="solid",fontname="Helvetica"];
  Node5 [label="model.MAutomovel.getAutomovelId",height=0.2,width=0.4,color="black", fillcolor="white", style="filled",URL="$classmodel_1_1_m_automovel.html#a0e5360d9418284d08c053a439ef35a26"];
  Node3 -> Node6 [color="midnightblue",fontsize="10",style="solid",fontname="Helvetica"];
  Node6 [label="driver.ConnDb.desligaDb",height=0.2,width=0.4,color="black", fillcolor="white", style="filled",URL="$classdriver_1_1_conn_db.html#a1b106248ed8f299763e27b1e6fb730f7"];
  Node1 -> Node7 [color="midnightblue",fontsize="10",style="solid",fontname="Helvetica"];
  Node7 [label="model.MAutomovel.setPesquisa",height=0.2,width=0.4,color="black", fillcolor="white", style="filled",URL="$classmodel_1_1_m_automovel.html#a4321a02f0df65d6de15bb0b58ff6387a"];
  Node1 -> Node8 [color="midnightblue",fontsize="10",style="solid",fontname="Helvetica"];
  Node8 [label="dao.DaoAutomovel.procura\lAutomovel",height=0.2,width=0.4,color="black", fillcolor="white", style="filled",URL="$classdao_1_1_dao_automovel.html#a90a40897922cb8202c7d229e41e239e4"];
  Node8 -> Node4 [color="midnightblue",fontsize="10",style="solid",fontname="Helvetica"];
  Node8 -> Node9 [color="midnightblue",fontsize="10",style="solid",fontname="Helvetica"];
  Node9 [label="model.MAutomovel.getPesquisa",height=0.2,width=0.4,color="black", fillcolor="white", style="filled",URL="$classmodel_1_1_m_automovel.html#ae2fabd760d32b3982c7a1837a942db70"];
  Node8 -> Node2 [color="midnightblue",fontsize="10",style="solid",fontname="Helvetica"];
  Node8 -> Node10 [color="midnightblue",fontsize="10",style="solid",fontname="Helvetica"];
  Node10 [label="model.MAutomovel.setMarca",height=0.2,width=0.4,color="black", fillcolor="white", style="filled",URL="$classmodel_1_1_m_automovel.html#a961b4c00727f1dada646715316135d49"];
  Node8 -> Node11 [color="midnightblue",fontsize="10",style="solid",fontname="Helvetica"];
  Node11 [label="model.MAutomovel.setModelo",height=0.2,width=0.4,color="black", fillcolor="white", style="filled",URL="$classmodel_1_1_m_automovel.html#afb6d82a14b8aaa75b2ef6879208f4aac"];
  Node8 -> Node12 [color="midnightblue",fontsize="10",style="solid",fontname="Helvetica"];
  Node12 [label="model.MAutomovel.setCor",height=0.2,width=0.4,color="black", fillcolor="white", style="filled",URL="$classmodel_1_1_m_automovel.html#a6c925592a387f5e2f016e546c3c6a275"];
  Node8 -> Node13 [color="midnightblue",fontsize="10",style="solid",fontname="Helvetica"];
  Node13 [label="model.MAutomovel.setCilindrada",height=0.2,width=0.4,color="black", fillcolor="white", style="filled",URL="$classmodel_1_1_m_automovel.html#a8e0ff3ce50c8b292761f41974fb0754a"];
  Node8 -> Node14 [color="midnightblue",fontsize="10",style="solid",fontname="Helvetica"];
  Node14 [label="model.MAutomovel.setMatricula",height=0.2,width=0.4,color="black", fillcolor="white", style="filled",URL="$classmodel_1_1_m_automovel.html#a9ddd3b13851bc912a269c271c2950b45"];
  Node8 -> Node15 [color="midnightblue",fontsize="10",style="solid",fontname="Helvetica"];
  Node15 [label="model.MAutomovel.setCombustivel",height=0.2,width=0.4,color="black", fillcolor="white", style="filled",URL="$classmodel_1_1_m_automovel.html#a8103af84fe4e0afd88bdf548be71b987"];
  Node8 -> Node16 [color="midnightblue",fontsize="10",style="solid",fontname="Helvetica"];
  Node16 [label="model.MAutomovel.setAnoAquisicao",height=0.2,width=0.4,color="black", fillcolor="white", style="filled",URL="$classmodel_1_1_m_automovel.html#a7668ec022fe0e5af6d625f44ce089e10"];
  Node8 -> Node17 [color="midnightblue",fontsize="10",style="solid",fontname="Helvetica"];
  Node17 [label="model.MAutomovel.setAnoVenda",height=0.2,width=0.4,color="black", fillcolor="white", style="filled",URL="$classmodel_1_1_m_automovel.html#aacaabb26cff37eac1ed38fcf22bd5207"];
  Node8 -> Node18 [color="midnightblue",fontsize="10",style="solid",fontname="Helvetica"];
  Node18 [label="model.MAutomovel.setPreco\lAquisicao",height=0.2,width=0.4,color="black", fillcolor="white", style="filled",URL="$classmodel_1_1_m_automovel.html#a26e759f54d0972c2844cdbf3b7051e0f"];
  Node8 -> Node19 [color="midnightblue",fontsize="10",style="solid",fontname="Helvetica"];
  Node19 [label="model.MAutomovel.setPreco\lVenda",height=0.2,width=0.4,color="black", fillcolor="white", style="filled",URL="$classmodel_1_1_m_automovel.html#a1e6ce4784cf260110954cc471f6c7ac7"];
  Node8 -> Node6 [color="midnightblue",fontsize="10",style="solid",fontname="Helvetica"];
  Node1 -> Node5 [color="midnightblue",fontsize="10",style="solid",fontname="Helvetica"];
  Node1 -> Node20 [color="midnightblue",fontsize="10",style="solid",fontname="Helvetica"];
  Node20 [label="model.MAutomovel.getMarca",height=0.2,width=0.4,color="black", fillcolor="white", style="filled",URL="$classmodel_1_1_m_automovel.html#a96ec5e78b0a75fc3999b4d58cea4a0cb"];
  Node1 -> Node21 [color="midnightblue",fontsize="10",style="solid",fontname="Helvetica"];
  Node21 [label="model.MAutomovel.getModelo",height=0.2,width=0.4,color="black", fillcolor="white", style="filled",URL="$classmodel_1_1_m_automovel.html#ac6c9df788ec43016c525692cbf510131"];
  Node1 -> Node22 [color="midnightblue",fontsize="10",style="solid",fontname="Helvetica"];
  Node22 [label="model.MAutomovel.getCor",height=0.2,width=0.4,color="black", fillcolor="white", style="filled",URL="$classmodel_1_1_m_automovel.html#ad2c0884accf02106b09ebb06bc035583"];
  Node1 -> Node23 [color="midnightblue",fontsize="10",style="solid",fontname="Helvetica"];
  Node23 [label="model.MAutomovel.getCilindrada",height=0.2,width=0.4,color="black", fillcolor="white", style="filled",URL="$classmodel_1_1_m_automovel.html#ac0c63b8a85c77f150af763fd25ae2703"];
  Node1 -> Node24 [color="midnightblue",fontsize="10",style="solid",fontname="Helvetica"];
  Node24 [label="model.MAutomovel.getMatricula",height=0.2,width=0.4,color="black", fillcolor="white", style="filled",URL="$classmodel_1_1_m_automovel.html#ace638c4e2e8ca8fc4095e250264d4cf2"];
  Node1 -> Node25 [color="midnightblue",fontsize="10",style="solid",fontname="Helvetica"];
  Node25 [label="model.MAutomovel.getAnoAquisicao",height=0.2,width=0.4,color="black", fillcolor="white", style="filled",URL="$classmodel_1_1_m_automovel.html#acbf7345aa3377361bedeba7c91e6b804"];
  Node1 -> Node26 [color="midnightblue",fontsize="10",style="solid",fontname="Helvetica"];
  Node26 [label="model.MAutomovel.getAnoVenda",height=0.2,width=0.4,color="black", fillcolor="white", style="filled",URL="$classmodel_1_1_m_automovel.html#acc013a7e453b2f759e24aef81ceb94d5"];
  Node1 -> Node27 [color="midnightblue",fontsize="10",style="solid",fontname="Helvetica"];
  Node27 [label="model.MAutomovel.getPreco\lAquisicao",height=0.2,width=0.4,color="black", fillcolor="white", style="filled",URL="$classmodel_1_1_m_automovel.html#a77476eb9eb3e06401bd56a8fa118bae8"];
  Node1 -> Node28 [color="midnightblue",fontsize="10",style="solid",fontname="Helvetica"];
  Node28 [label="model.MAutomovel.getPreco\lVenda",height=0.2,width=0.4,color="black", fillcolor="white", style="filled",URL="$classmodel_1_1_m_automovel.html#a7d1b15ef96457a3672e940f86c746c37"];
  Node1 -> Node29 [color="midnightblue",fontsize="10",style="solid",fontname="Helvetica"];
  Node29 [label="model.MAutomovel.getCombustivel",height=0.2,width=0.4,color="black", fillcolor="white", style="filled",URL="$classmodel_1_1_m_automovel.html#a544024bf0c7038a0af3523deca2d150d"];
  Node1 -> Node9 [color="midnightblue",fontsize="10",style="solid",fontname="Helvetica"];
  Node1 -> Node10 [color="midnightblue",fontsize="10",style="solid",fontname="Helvetica"];
  Node1 -> Node11 [color="midnightblue",fontsize="10",style="solid",fontname="Helvetica"];
  Node1 -> Node15 [color="midnightblue",fontsize="10",style="solid",fontname="Helvetica"];
  Node1 -> Node12 [color="midnightblue",fontsize="10",style="solid",fontname="Helvetica"];
  Node1 -> Node13 [color="midnightblue",fontsize="10",style="solid",fontname="Helvetica"];
  Node1 -> Node14 [color="midnightblue",fontsize="10",style="solid",fontname="Helvetica"];
  Node1 -> Node16 [color="midnightblue",fontsize="10",style="solid",fontname="Helvetica"];
  Node1 -> Node17 [color="midnightblue",fontsize="10",style="solid",fontname="Helvetica"];
  Node1 -> Node18 [color="midnightblue",fontsize="10",style="solid",fontname="Helvetica"];
  Node1 -> Node19 [color="midnightblue",fontsize="10",style="solid",fontname="Helvetica"];
  Node1 -> Node30 [color="midnightblue",fontsize="10",style="solid",fontname="Helvetica"];
  Node30 [label="dao.DaoAutomovel.gravarDb",height=0.2,width=0.4,color="black", fillcolor="white", style="filled",URL="$classdao_1_1_dao_automovel.html#a6608ca9e48dd6196189a931e2c89db4f"];
  Node30 -> Node4 [color="midnightblue",fontsize="10",style="solid",fontname="Helvetica"];
  Node30 -> Node20 [color="midnightblue",fontsize="10",style="solid",fontname="Helvetica"];
  Node30 -> Node21 [color="midnightblue",fontsize="10",style="solid",fontname="Helvetica"];
  Node30 -> Node22 [color="midnightblue",fontsize="10",style="solid",fontname="Helvetica"];
  Node30 -> Node23 [color="midnightblue",fontsize="10",style="solid",fontname="Helvetica"];
  Node30 -> Node24 [color="midnightblue",fontsize="10",style="solid",fontname="Helvetica"];
  Node30 -> Node29 [color="midnightblue",fontsize="10",style="solid",fontname="Helvetica"];
  Node30 -> Node25 [color="midnightblue",fontsize="10",style="solid",fontname="Helvetica"];
  Node30 -> Node26 [color="midnightblue",fontsize="10",style="solid",fontname="Helvetica"];
  Node30 -> Node27 [color="midnightblue",fontsize="10",style="solid",fontname="Helvetica"];
  Node30 -> Node28 [color="midnightblue",fontsize="10",style="solid",fontname="Helvetica"];
  Node30 -> Node6 [color="midnightblue",fontsize="10",style="solid",fontname="Helvetica"];
  Node1 -> Node31 [color="midnightblue",fontsize="10",style="solid",fontname="Helvetica"];
  Node31 [label="dao.DaoAutomovel.editarDb",height=0.2,width=0.4,color="black", fillcolor="white", style="filled",URL="$classdao_1_1_dao_automovel.html#a807e227c76d448ac1eaf99d30977ef21"];
  Node31 -> Node4 [color="midnightblue",fontsize="10",style="solid",fontname="Helvetica"];
  Node31 -> Node20 [color="midnightblue",fontsize="10",style="solid",fontname="Helvetica"];
  Node31 -> Node21 [color="midnightblue",fontsize="10",style="solid",fontname="Helvetica"];
  Node31 -> Node22 [color="midnightblue",fontsize="10",style="solid",fontname="Helvetica"];
  Node31 -> Node23 [color="midnightblue",fontsize="10",style="solid",fontname="Helvetica"];
  Node31 -> Node24 [color="midnightblue",fontsize="10",style="solid",fontname="Helvetica"];
  Node31 -> Node29 [color="midnightblue",fontsize="10",style="solid",fontname="Helvetica"];
  Node31 -> Node25 [color="midnightblue",fontsize="10",style="solid",fontname="Helvetica"];
  Node31 -> Node26 [color="midnightblue",fontsize="10",style="solid",fontname="Helvetica"];
  Node31 -> Node27 [color="midnightblue",fontsize="10",style="solid",fontname="Helvetica"];
  Node31 -> Node28 [color="midnightblue",fontsize="10",style="solid",fontname="Helvetica"];
  Node31 -> Node5 [color="midnightblue",fontsize="10",style="solid",fontname="Helvetica"];
  Node31 -> Node6 [color="midnightblue",fontsize="10",style="solid",fontname="Helvetica"];
  Node1 -> Node32 [color="midnightblue",fontsize="10",style="solid",fontname="Helvetica"];
  Node32 [label="dao.DaoAutomovel.seleciona\lLista",height=0.2,width=0.4,color="black", fillcolor="white", style="filled",URL="$classdao_1_1_dao_automovel.html#a085be97d6104414e31a0f046eb52f502"];
  Node32 -> Node4 [color="midnightblue",fontsize="10",style="solid",fontname="Helvetica"];
  Node32 -> Node9 [color="midnightblue",fontsize="10",style="solid",fontname="Helvetica"];
  Node32 -> Node2 [color="midnightblue",fontsize="10",style="solid",fontname="Helvetica"];
  Node32 -> Node10 [color="midnightblue",fontsize="10",style="solid",fontname="Helvetica"];
  Node32 -> Node11 [color="midnightblue",fontsize="10",style="solid",fontname="Helvetica"];
  Node32 -> Node12 [color="midnightblue",fontsize="10",style="solid",fontname="Helvetica"];
  Node32 -> Node13 [color="midnightblue",fontsize="10",style="solid",fontname="Helvetica"];
  Node32 -> Node14 [color="midnightblue",fontsize="10",style="solid",fontname="Helvetica"];
  Node32 -> Node15 [color="midnightblue",fontsize="10",style="solid",fontname="Helvetica"];
  Node32 -> Node16 [color="midnightblue",fontsize="10",style="solid",fontname="Helvetica"];
  Node32 -> Node17 [color="midnightblue",fontsize="10",style="solid",fontname="Helvetica"];
  Node32 -> Node18 [color="midnightblue",fontsize="10",style="solid",fontname="Helvetica"];
  Node32 -> Node19 [color="midnightblue",fontsize="10",style="solid",fontname="Helvetica"];
  Node32 -> Node6 [color="midnightblue",fontsize="10",style="solid",fontname="Helvetica"];
}
