digraph "dao.FormatRenderer.getDateTimeRenderer"
{
  edge [fontname="Helvetica",fontsize="10",labelfontname="Helvetica",labelfontsize="10"];
  node [fontname="Helvetica",fontsize="10",shape=record];
  rankdir="LR";
  Node1 [label="dao.FormatRenderer.getDate\lTimeRenderer",height=0.2,width=0.4,color="black", fillcolor="grey75", style="filled", fontcolor="black"];
  Node1 -> Node2 [color="midnightblue",fontsize="10",style="solid",fontname="Helvetica"];
  Node2 [label="dao.FormatRenderer.Format\lRenderer",height=0.2,width=0.4,color="black", fillcolor="white", style="filled",URL="$classdao_1_1_format_renderer.html#a013b2c54652aa5c33a5b695adc46cf2f"];
}
