digraph "dao.DaoTipoUtilizador.selecionaLista"
{
  edge [fontname="Helvetica",fontsize="10",labelfontname="Helvetica",labelfontsize="10"];
  node [fontname="Helvetica",fontsize="10",shape=record];
  rankdir="LR";
  Node1 [label="dao.DaoTipoUtilizador.seleciona\lLista",height=0.2,width=0.4,color="black", fillcolor="grey75", style="filled", fontcolor="black"];
  Node1 -> Node2 [color="midnightblue",fontsize="10",style="solid",fontname="Helvetica"];
  Node2 [label="driver.ConnDb.ligacaoDb",height=0.2,width=0.4,color="black", fillcolor="white", style="filled",URL="$classdriver_1_1_conn_db.html#af8a2d4bb54d48391d0b578f602e86f60"];
  Node1 -> Node3 [color="midnightblue",fontsize="10",style="solid",fontname="Helvetica"];
  Node3 [label="model.MTipoUtilizadores.get\lPesquisa",height=0.2,width=0.4,color="black", fillcolor="white", style="filled",URL="$classmodel_1_1_m_tipo_utilizadores.html#ad00827e4b26ba0a49d8bfa530d1da37c"];
  Node1 -> Node4 [color="midnightblue",fontsize="10",style="solid",fontname="Helvetica"];
  Node4 [label="model.MTipoUtilizadores.set\lTipoUtilizadoresId",height=0.2,width=0.4,color="black", fillcolor="white", style="filled",URL="$classmodel_1_1_m_tipo_utilizadores.html#ace81908afb9e07294173854cf3be0309"];
  Node1 -> Node5 [color="midnightblue",fontsize="10",style="solid",fontname="Helvetica"];
  Node5 [label="model.MTipoUtilizadores.set\lDescricao",height=0.2,width=0.4,color="black", fillcolor="white", style="filled",URL="$classmodel_1_1_m_tipo_utilizadores.html#aefaf424e1bd0cf32e57491703f57161d"];
  Node1 -> Node6 [color="midnightblue",fontsize="10",style="solid",fontname="Helvetica"];
  Node6 [label="driver.ConnDb.desligaDb",height=0.2,width=0.4,color="black", fillcolor="white", style="filled",URL="$classdriver_1_1_conn_db.html#a1b106248ed8f299763e27b1e6fb730f7"];
}
