digraph "Graphical Class Hierarchy"
{
  edge [fontname="Helvetica",fontsize="10",labelfontname="Helvetica",labelfontsize="10"];
  node [fontname="Helvetica",fontsize="10",shape=record];
  rankdir="LR";
  Node1 [label="dao.DaoTaxaImposto",height=0.2,width=0.4,color="black", fillcolor="white", style="filled",URL="$classdao_1_1_dao_taxa_imposto.html"];
}
